[
    {
        "name": "Google",
        "url": "https://google.com",
        "status_code": 200
    },
    {
        "name": "Example",
        "url": "http://example.com",
        "status_code": 404
    }
]